{
  "status": 0,
  "result": [
    {
      "createdById": "0050P000007MexNQAS",
      "createdByName": "Fellipe Borges",
      "createdDate": "2017-11-29T11:20:00.000Z",
      "fileName": "triggers/Zendesk__TrgrZendeskUserFromLead.trigger",
      "fullName": "Zendesk__TrgrZendeskUserFromLead",
      "id": "01q0P000000VIDWQA4",
      "lastModifiedById": "0050P000007MexNQAS",
      "lastModifiedByName": "Fellipe Borges",
      "lastModifiedDate": "2017-11-29T11:20:00.000Z",
      "manageableState": "installed",
      "namespacePrefix": "Zendesk",
      "type": "ApexTrigger"
    },
    {
      "createdById": "0050P000008bXceQAE",
      "createdByName": "Projeto werise",
      "createdDate": "2020-07-14T21:18:24.000Z",
      "fileName": "triggers/LeadTrigger.trigger",
      "fullName": "LeadTrigger",
      "id": "01q2C000000LRn2QAG",
      "lastModifiedById": "0050P000008bXceQAE",
      "lastModifiedByName": "Projeto werise",
      "lastModifiedDate": "2020-11-12T14:12:14.000Z",
      "manageableState": "unmanaged",
      "type": "ApexTrigger"
    },
    {
      "createdById": "0050P000008bXceQAE",
      "createdByName": "Projeto werise",
      "createdDate": "2020-06-30T18:26:24.000Z",
      "fileName": "triggers/rh2__PS_RH_Job.trigger",
      "fullName": "rh2__PS_RH_Job",
      "id": "01q2C000000LRYxQAO",
      "lastModifiedById": "0052C000002I4DtQAK",
      "lastModifiedByName": "Rollup Helper",
      "lastModifiedDate": "2020-07-08T03:53:57.000Z",
      "manageableState": "installed",
      "namespacePrefix": "rh2",
      "type": "ApexTrigger"
    },
    {
      "createdById": "0050P000007MexNQAS",
      "createdByName": "Fellipe Borges",
      "createdDate": "2018-01-11T12:58:36.000Z",
      "fileName": "triggers/VIA_AccountStatusUpdated.trigger",
      "fullName": "VIA_AccountStatusUpdated",
      "id": "01q0P000000VKKiQAO",
      "lastModifiedById": "0050P000007MexNQAS",
      "lastModifiedByName": "Fellipe Borges",
      "lastModifiedDate": "2018-03-21T17:12:23.000Z",
      "manageableState": "unmanaged",
      "type": "ApexTrigger"
    },
    {
      "createdById": "0050P000007MexNQAS",
      "createdByName": "Fellipe Borges",
      "createdDate": "2017-11-29T11:20:00.000Z",
      "fileName": "triggers/Zendesk__ZendeskSyncJobTrigger.trigger",
      "fullName": "Zendesk__ZendeskSyncJobTrigger",
      "id": "01q0P000000VIDXQA4",
      "lastModifiedById": "0050P000007MexNQAS",
      "lastModifiedByName": "Fellipe Borges",
      "lastModifiedDate": "2017-11-29T11:20:00.000Z",
      "manageableState": "installed",
      "namespacePrefix": "Zendesk",
      "type": "ApexTrigger"
    },
    {
      "createdById": "0050P000007MexNQAS",
      "createdByName": "Fellipe Borges",
      "createdDate": "2017-11-29T11:20:00.000Z",
      "fileName": "triggers/Zendesk__TrgrZendeskUserFromContact.trigger",
      "fullName": "Zendesk__TrgrZendeskUserFromContact",
      "id": "01q0P000000VIDVQA4",
      "lastModifiedById": "0050P000007MexNQAS",
      "lastModifiedByName": "Fellipe Borges",
      "lastModifiedDate": "2017-11-29T11:20:00.000Z",
      "manageableState": "installed",
      "namespacePrefix": "Zendesk",
      "type": "ApexTrigger"
    },
    {
      "createdById": "0050P000008bXceQAE",
      "createdByName": "Projeto werise",
      "createdDate": "2020-06-30T18:26:24.000Z",
      "fileName": "triggers/rh2__PS_Task.trigger",
      "fullName": "rh2__PS_Task",
      "id": "01q2C000000LRYzQAO",
      "lastModifiedById": "0052C000002I4DtQAK",
      "lastModifiedByName": "Rollup Helper",
      "lastModifiedDate": "2020-07-08T03:53:57.000Z",
      "manageableState": "installed",
      "namespacePrefix": "rh2",
      "type": "ApexTrigger"
    },
    {
      "createdById": "0050P000008bXceQAE",
      "createdByName": "Projeto werise",
      "createdDate": "2020-06-30T18:26:24.000Z",
      "fileName": "triggers/rh2__PS_Describe.trigger",
      "fullName": "rh2__PS_Describe",
      "id": "01q2C000000LRYtQAO",
      "lastModifiedById": "0052C000002I4DtQAK",
      "lastModifiedByName": "Rollup Helper",
      "lastModifiedDate": "2020-11-06T04:47:43.000Z",
      "manageableState": "installed",
      "namespacePrefix": "rh2",
      "type": "ApexTrigger"
    },
    {
      "createdById": "0050P000006xy0CQAQ",
      "createdByName": "Phanikanth Chatakommu",
      "createdDate": "2017-04-17T01:41:12.000Z",
      "fileName": "triggers/CreateAssetonClosedWon.trigger",
      "fullName": "CreateAssetonClosedWon",
      "id": "01q0P0000005j4tQAA",
      "lastModifiedById": "0050P000006xy0CQAQ",
      "lastModifiedByName": "Phanikanth Chatakommu",
      "lastModifiedDate": "2018-06-19T22:45:15.000Z",
      "manageableState": "unmanaged",
      "type": "ApexTrigger"
    },
    {
      "createdById": "0050P000008bXceQAE",
      "createdByName": "Projeto werise",
      "createdDate": "2020-06-30T18:26:24.000Z",
      "fileName": "triggers/rh2__PS_Event.trigger",
      "fullName": "rh2__PS_Event",
      "id": "01q2C000000LRYuQAO",
      "lastModifiedById": "0052C000002I4DtQAK",
      "lastModifiedByName": "Rollup Helper",
      "lastModifiedDate": "2020-07-08T03:53:57.000Z",
      "manageableState": "installed",
      "namespacePrefix": "rh2",
      "type": "ApexTrigger"
    },
    {
      "createdById": "0050P000006xy0CQAQ",
      "createdByName": "Phanikanth Chatakommu",
      "createdDate": "2018-04-08T23:14:52.000Z",
      "fileName": "triggers/OrderTrigger.trigger",
      "fullName": "OrderTrigger",
      "id": "01q0P000000FmU5QAK",
      "lastModifiedById": "0050P000006xy0CQAQ",
      "lastModifiedByName": "Phanikanth Chatakommu",
      "lastModifiedDate": "2018-06-19T22:04:14.000Z",
      "manageableState": "unmanaged",
      "type": "ApexTrigger"
    },
    {
      "createdById": "0050P000006xy0CQAQ",
      "createdByName": "Phanikanth Chatakommu",
      "createdDate": "2018-06-19T22:04:14.000Z",
      "fileName": "triggers/COL_UpdateAccountOrders_IntegrationFlags.trigger",
      "fullName": "COL_UpdateAccountOrders_IntegrationFlags",
      "id": "01q0P000000RFmDQAW",
      "lastModifiedById": "0050P000006xy0CQAQ",
      "lastModifiedByName": "Phanikanth Chatakommu",
      "lastModifiedDate": "2018-06-19T22:04:14.000Z",
      "manageableState": "unmanaged",
      "type": "ApexTrigger"
    },
    {
      "createdById": "0050P000007MexNQAS",
      "createdByName": "Fellipe Borges",
      "createdDate": "2018-03-26T12:51:55.000Z",
      "fileName": "triggers/CheckForCompetitors.trigger",
      "fullName": "CheckForCompetitors",
      "id": "01q0P0000005r8AQAQ",
      "lastModifiedById": "0050P000007MexNQAS",
      "lastModifiedByName": "Fellipe Borges",
      "lastModifiedDate": "2018-03-26T12:51:55.000Z",
      "manageableState": "unmanaged",
      "type": "ApexTrigger"
    },
    {
      "createdById": "0050P000006xy0CQAQ",
      "createdByName": "Phanikanth Chatakommu",
      "createdDate": "2018-06-19T22:04:14.000Z",
      "fileName": "triggers/UpdateContentDocumentLinkVisibilityOnInsert.trigger",
      "fullName": "UpdateContentDocumentLinkVisibilityOnInsert",
      "id": "01q0P000000RFmEQAW",
      "lastModifiedById": "0050P000006xy0CQAQ",
      "lastModifiedByName": "Phanikanth Chatakommu",
      "lastModifiedDate": "2018-06-19T22:04:14.000Z",
      "manageableState": "unmanaged",
      "type": "ApexTrigger"
    },
    {
      "createdById": "0050P000008bXceQAE",
      "createdByName": "Projeto werise",
      "createdDate": "2020-06-30T18:26:24.000Z",
      "fileName": "triggers/rh2__PS_Import_Rollups.trigger",
      "fullName": "rh2__PS_Import_Rollups",
      "id": "01q2C000000LRYvQAO",
      "lastModifiedById": "0052C000002I4DtQAK",
      "lastModifiedByName": "Rollup Helper",
      "lastModifiedDate": "2020-07-08T03:53:57.000Z",
      "manageableState": "installed",
      "namespacePrefix": "rh2",
      "type": "ApexTrigger"
    },
    {
      "createdById": "0050P000008bXceQAE",
      "createdByName": "Projeto werise",
      "createdDate": "2020-06-30T18:26:24.000Z",
      "fileName": "triggers/rh2__PS_Contact.trigger",
      "fullName": "rh2__PS_Contact",
      "id": "01q2C000000LRYrQAO",
      "lastModifiedById": "0052C000002I4DtQAK",
      "lastModifiedByName": "Rollup Helper",
      "lastModifiedDate": "2020-07-08T03:53:56.000Z",
      "manageableState": "installed",
      "namespacePrefix": "rh2",
      "type": "ApexTrigger"
    },
    {
      "createdById": "0050P000008bXceQAE",
      "createdByName": "Projeto werise",
      "createdDate": "2020-06-30T18:26:24.000Z",
      "fileName": "triggers/rh2__PS_Rollup_Dummy.trigger",
      "fullName": "rh2__PS_Rollup_Dummy",
      "id": "01q2C000000LRYyQAO",
      "lastModifiedById": "0052C000002I4DtQAK",
      "lastModifiedByName": "Rollup Helper",
      "lastModifiedDate": "2020-07-08T03:53:57.000Z",
      "manageableState": "installed",
      "namespacePrefix": "rh2",
      "type": "ApexTrigger"
    },
    {
      "createdById": "0050P000006xy0CQAQ",
      "createdByName": "Phanikanth Chatakommu",
      "createdDate": "2017-05-01T18:50:16.000Z",
      "fileName": "triggers/Account_Trigger.trigger",
      "fullName": "Account_Trigger",
      "id": "01q0P000000HxGaQAK",
      "lastModifiedById": "0050P000006xy0CQAQ",
      "lastModifiedByName": "Phanikanth Chatakommu",
      "lastModifiedDate": "2018-06-19T22:04:14.000Z",
      "manageableState": "unmanaged",
      "type": "ApexTrigger"
    },
    {
      "createdById": "0050P000007MexNQAS",
      "createdByName": "Fellipe Borges",
      "createdDate": "2017-11-29T11:20:00.000Z",
      "fileName": "triggers/Zendesk__TrgrZendeskOrganization.trigger",
      "fullName": "Zendesk__TrgrZendeskOrganization",
      "id": "01q0P000000VIDUQA4",
      "lastModifiedById": "0050P000007MexNQAS",
      "lastModifiedByName": "Fellipe Borges",
      "lastModifiedDate": "2017-11-29T11:20:00.000Z",
      "manageableState": "installed",
      "namespacePrefix": "Zendesk",
      "type": "ApexTrigger"
    },
    {
      "createdById": "0050P000008bXceQAE",
      "createdByName": "Projeto werise",
      "createdDate": "2020-06-30T18:26:24.000Z",
      "fileName": "triggers/rh2__PS_Queue.trigger",
      "fullName": "rh2__PS_Queue",
      "id": "01q2C000000LRYwQAO",
      "lastModifiedById": "0052C000002I4DtQAK",
      "lastModifiedByName": "Rollup Helper",
      "lastModifiedDate": "2020-07-08T03:53:57.000Z",
      "manageableState": "installed",
      "namespacePrefix": "rh2",
      "type": "ApexTrigger"
    },
    {
      "createdById": "0050P000008bXceQAE",
      "createdByName": "Projeto werise",
      "createdDate": "2020-06-30T18:26:24.000Z",
      "fileName": "triggers/rh2__PS_Contact_Describe_Async.trigger",
      "fullName": "rh2__PS_Contact_Describe_Async",
      "id": "01q2C000000LRYsQAO",
      "lastModifiedById": "0052C000002I4DtQAK",
      "lastModifiedByName": "Rollup Helper",
      "lastModifiedDate": "2020-11-06T04:47:43.000Z",
      "manageableState": "installed",
      "namespacePrefix": "rh2",
      "type": "ApexTrigger"
    },
    {
      "createdById": "0050P000007c5m0QAA",
      "createdByName": "Marcos Araujo de Souza",
      "createdDate": "2020-03-28T13:12:40.000Z",
      "fileName": "triggers/ContactTrigger.trigger",
      "fullName": "ContactTrigger",
      "id": "01q0P0000006bqYQAQ",
      "lastModifiedById": "0050P000007c5m0QAA",
      "lastModifiedByName": "Marcos Araujo de Souza",
      "lastModifiedDate": "2020-03-28T19:48:01.000Z",
      "manageableState": "unmanaged",
      "type": "ApexTrigger"
    },
    {
      "createdById": "0050P000008bXceQAE",
      "createdByName": "Projeto werise",
      "createdDate": "2020-06-30T18:26:24.000Z",
      "fileName": "triggers/rh2__PS_Account.trigger",
      "fullName": "rh2__PS_Account",
      "id": "01q2C000000LRYqQAO",
      "lastModifiedById": "0052C000002I4DtQAK",
      "lastModifiedByName": "Rollup Helper",
      "lastModifiedDate": "2020-07-08T03:53:56.000Z",
      "manageableState": "installed",
      "namespacePrefix": "rh2",
      "type": "ApexTrigger"
    }
  ]
}
