{
  "status": 0,
  "result": [
    {
      "createdById": "0050P000008bXceQAE",
      "createdByName": "Projeto werise",
      "createdDate": "1970-01-01T00:00:00.000Z",
      "fileName": "objects/Idea.object",
      "fullName": "Idea",
      "id": "",
      "lastModifiedById": "0050P000008bXceQAE",
      "lastModifiedByName": "Projeto werise",
      "lastModifiedDate": "1970-01-01T00:00:00.000Z",
      "namespacePrefix": "",
      "type": "CustomObject"
    },
    {
      "createdById": "0050P000008bXceQAE",
      "createdByName": "Projeto werise",
      "createdDate": "1970-01-01T00:00:00.000Z",
      "fileName": "objects/EngagementChannelType.object",
      "fullName": "EngagementChannelType",
      "id": "",
      "lastModifiedById": "0050P000008bXceQAE",
      "lastModifiedByName": "Projeto werise",
      "lastModifiedDate": "1970-01-01T00:00:00.000Z",
      "namespacePrefix": "",
      "type": "CustomObject"
    },
    {
      "createdById": "0050P000008bXceQAE",
      "createdByName": "Projeto werise",
      "createdDate": "2020-06-30T18:25:36.000Z",
      "fileName": "objects/rh2__PS_Export_Rollups__c.object",
      "fullName": "rh2__PS_Export_Rollups__c",
      "id": "01I2C0000005VkOUAU",
      "lastModifiedById": "0052C000002I4DtQAK",
      "lastModifiedByName": "Rollup Helper",
      "lastModifiedDate": "2021-01-19T04:20:08.000Z",
      "manageableState": "installed",
      "namespacePrefix": "rh2",
      "type": "CustomObject"
    },
    {
      "createdById": "0050P000007MexNQAS",
      "createdByName": "Fellipe Borges",
      "createdDate": "2018-10-18T18:11:04.000Z",
      "fileName": "objects/Opportunity_Special_Condition__c.object",
      "fullName": "Opportunity_Special_Condition__c",
      "id": "01I0P000001MShfUAG",
      "lastModifiedById": "0050P000007MexNQAS",
      "lastModifiedByName": "Fellipe Borges",
      "lastModifiedDate": "2018-10-18T18:11:04.000Z",
      "manageableState": "unmanaged",
      "type": "CustomObject"
    },
    {
      "createdById": "0050P000008bXceQAE",
      "createdByName": "Projeto werise",
      "createdDate": "2020-06-30T18:25:36.000Z",
      "fileName": "objects/rh2__PS_Describe__c.object",
      "fullName": "rh2__PS_Describe__c",
      "id": "01I2C0000005VkMUAU",
      "lastModifiedById": "0052C000002I4DtQAK",
      "lastModifiedByName": "Rollup Helper",
      "lastModifiedDate": "2021-01-19T04:20:07.000Z",
      "manageableState": "installed",
      "namespacePrefix": "rh2",
      "type": "CustomObject"
    },
    {
      "createdById": "0050P000008bXceQAE",
      "createdByName": "Projeto werise",
      "createdDate": "1970-01-01T00:00:00.000Z",
      "fileName": "objects/NetworkMemberChunk.object",
      "fullName": "NetworkMemberChunk",
      "id": "",
      "lastModifiedById": "0050P000008bXceQAE",
      "lastModifiedByName": "Projeto werise",
      "lastModifiedDate": "1970-01-01T00:00:00.000Z",
      "namespacePrefix": "",
      "type": "CustomObject"
    },
    {
      "createdById": "0050P000006xnuLQAQ",
      "createdByName": "Jack Melim",
      "createdDate": "2018-02-26T15:24:17.000Z",
      "fileName": "objects/COL_IntegrationSettings__c.object",
      "fullName": "COL_IntegrationSettings__c",
      "id": "01I0P000000ptDmUAI",
      "lastModifiedById": "0050P000006xnuLQAQ",
      "lastModifiedByName": "Jack Melim",
      "lastModifiedDate": "2018-02-26T15:24:17.000Z",
      "manageableState": "unmanaged",
      "type": "CustomObject"
    },
    {
      "createdById": "0050P000008bXceQAE",
      "createdByName": "Projeto werise",
      "createdDate": "1970-01-01T00:00:00.000Z",
      "fileName": "objects/MacroUsage.object",
      "fullName": "MacroUsage",
      "id": "",
      "lastModifiedById": "0050P000008bXceQAE",
      "lastModifiedByName": "Projeto werise",
      "lastModifiedDate": "1970-01-01T00:00:00.000Z",
      "namespacePrefix": "",
      "type": "CustomObject"
    },
    {
      "createdById": "0050P000007c5m0QAA",
      "createdByName": "Marcos Araujo de Souza",
      "createdDate": "2019-07-01T13:21:12.000Z",
      "fileName": "objects/cwbtool__AnalysisSummary__c.object",
      "fullName": "cwbtool__AnalysisSummary__c",
      "id": "01I0P000000uefdUAA",
      "lastModifiedById": "0050P000007c5m0QAA",
      "lastModifiedByName": "Marcos Araujo de Souza",
      "lastModifiedDate": "2019-07-01T13:22:47.000Z",
      "manageableState": "installed",
      "namespacePrefix": "cwbtool",
      "type": "CustomObject"
    },
    {
      "createdById": "0050P000008bXceQAE",
      "createdByName": "Projeto werise",
      "createdDate": "1970-01-01T00:00:00.000Z",
      "fileName": "objects/AssetRelationship.object",
      "fullName": "AssetRelationship",
      "id": "",
      "lastModifiedById": "0050P000008bXceQAE",
      "lastModifiedByName": "Projeto werise",
      "lastModifiedDate": "1970-01-01T00:00:00.000Z",
      "namespacePrefix": "",
      "type": "CustomObject"
    },
    {
      "createdById": "0050P000008bXceQAE",
      "createdByName": "Projeto werise",
      "createdDate": "1970-01-01T00:00:00.000Z",
      "fileName": "objects/ChannelProgram.object",
      "fullName": "ChannelProgram",
      "id": "",
      "lastModifiedById": "0050P000008bXceQAE",
      "lastModifiedByName": "Projeto werise",
      "lastModifiedDate": "1970-01-01T00:00:00.000Z",
      "namespacePrefix": "",
      "type": "CustomObject"
    },
    {
      "createdById": "0050P000008bXceQAE",
      "createdByName": "Projeto werise",
      "createdDate": "1970-01-01T00:00:00.000Z",
      "fileName": "objects/AuthorizationForm.object",
      "fullName": "AuthorizationForm",
      "id": "",
      "lastModifiedById": "0050P000008bXceQAE",
      "lastModifiedByName": "Projeto werise",
      "lastModifiedDate": "1970-01-01T00:00:00.000Z",
      "namespacePrefix": "",
      "type": "CustomObject"
    },
    {
      "createdById": "0050P000008bXceQAE",
      "createdByName": "Projeto werise",
      "createdDate": "1970-01-01T00:00:00.000Z",
      "fileName": "objects/OpportunityContactRole.object",
      "fullName": "OpportunityContactRole",
      "id": "",
      "lastModifiedById": "0050P000008bXceQAE",
      "lastModifiedByName": "Projeto werise",
      "lastModifiedDate": "1970-01-01T00:00:00.000Z",
      "namespacePrefix": "",
      "type": "CustomObject"
    },
    {
      "createdById": "0050P000008bXceQAE",
      "createdByName": "Projeto werise",
      "createdDate": "1970-01-01T00:00:00.000Z",
      "fileName": "objects/Opportunity.object",
      "fullName": "Opportunity",
      "id": "",
      "lastModifiedById": "0050P000008bXceQAE",
      "lastModifiedByName": "Projeto werise",
      "lastModifiedDate": "1970-01-01T00:00:00.000Z",
      "namespacePrefix": "",
      "type": "CustomObject"
    },
    {
      "createdById": "0050P000008bXceQAE",
      "createdByName": "Projeto werise",
      "createdDate": "2020-06-30T18:25:37.000Z",
      "fileName": "objects/rh2__RH_Job__c.object",
      "fullName": "rh2__RH_Job__c",
      "id": "01I2C0000005VkUUAU",
      "lastModifiedById": "0052C000002I4DtQAK",
      "lastModifiedByName": "Rollup Helper",
      "lastModifiedDate": "2021-01-19T04:20:09.000Z",
      "manageableState": "installed",
      "namespacePrefix": "rh2",
      "type": "CustomObject"
    },
    {
      "createdById": "0050P000008bXceQAE",
      "createdByName": "Projeto werise",
      "createdDate": "1970-01-01T00:00:00.000Z",
      "fileName": "objects/OpportunityLineItem.object",
      "fullName": "OpportunityLineItem",
      "id": "",
      "lastModifiedById": "0050P000008bXceQAE",
      "lastModifiedByName": "Projeto werise",
      "lastModifiedDate": "1970-01-01T00:00:00.000Z",
      "namespacePrefix": "",
      "type": "CustomObject"
    },
    {
      "createdById": "0052C000002I4DtQAK",
      "createdByName": "Rollup Helper",
      "createdDate": "2020-11-06T04:47:16.000Z",
      "fileName": "objects/rh2__HS_Filter__c.object",
      "fullName": "rh2__HS_Filter__c",
      "id": "01I2C0000009SRQUA2",
      "lastModifiedById": "0052C000002I4DtQAK",
      "lastModifiedByName": "Rollup Helper",
      "lastModifiedDate": "2021-01-19T04:20:07.000Z",
      "manageableState": "installed",
      "namespacePrefix": "rh2",
      "type": "CustomObject"
    },
    {
      "createdById": "0050P000008bXceQAE",
      "createdByName": "Projeto werise",
      "createdDate": "1970-01-01T00:00:00.000Z",
      "fileName": "objects/OrgMetricScanSummary.object",
      "fullName": "OrgMetricScanSummary",
      "id": "",
      "lastModifiedById": "0050P000008bXceQAE",
      "lastModifiedByName": "Projeto werise",
      "lastModifiedDate": "1970-01-01T00:00:00.000Z",
      "namespacePrefix": "",
      "type": "CustomObject"
    },
    {
      "createdById": "0050P000008bXceQAE",
      "createdByName": "Projeto werise",
      "createdDate": "1970-01-01T00:00:00.000Z",
      "fileName": "objects/CommSubscriptionConsent.object",
      "fullName": "CommSubscriptionConsent",
      "id": "",
      "lastModifiedById": "0050P000008bXceQAE",
      "lastModifiedByName": "Projeto werise",
      "lastModifiedDate": "1970-01-01T00:00:00.000Z",
      "namespacePrefix": "",
      "type": "CustomObject"
    },
    {
      "createdById": "0050P000008bXceQAE",
      "createdByName": "Projeto werise",
      "createdDate": "1970-01-01T00:00:00.000Z",
      "fileName": "objects/ForecastingCategoryMapping.object",
      "fullName": "ForecastingCategoryMapping",
      "id": "",
      "lastModifiedById": "0050P000008bXceQAE",
      "lastModifiedByName": "Projeto werise",
      "lastModifiedDate": "1970-01-01T00:00:00.000Z",
      "namespacePrefix": "",
      "type": "CustomObject"
    },
    {
      "createdById": "0050P000008bXceQAE",
      "createdByName": "Projeto werise",
      "createdDate": "1970-01-01T00:00:00.000Z",
      "fileName": "objects/OrgMetricScanResult.object",
      "fullName": "OrgMetricScanResult",
      "id": "",
      "lastModifiedById": "0050P000008bXceQAE",
      "lastModifiedByName": "Projeto werise",
      "lastModifiedDate": "1970-01-01T00:00:00.000Z",
      "namespacePrefix": "",
      "type": "CustomObject"
    },
    {
      "createdById": "0050P000007MexNQAS",
      "createdByName": "Fellipe Borges",
      "createdDate": "2017-11-29T11:19:08.000Z",
      "fileName": "objects/Zendesk__Zendesk_Ticket_Comment__c.object",
      "fullName": "Zendesk__Zendesk_Ticket_Comment__c",
      "id": "01I0P000000pnvNUAQ",
      "lastModifiedById": "0050P000007MexNQAS",
      "lastModifiedByName": "Fellipe Borges",
      "lastModifiedDate": "2017-11-29T11:20:43.000Z",
      "manageableState": "installed",
      "namespacePrefix": "Zendesk",
      "type": "CustomObject"
    },
    {
      "createdById": "0050P000008bXceQAE",
      "createdByName": "Projeto werise",
      "createdDate": "1970-01-01T00:00:00.000Z",
      "fileName": "objects/ContactRequest.object",
      "fullName": "ContactRequest",
      "id": "",
      "lastModifiedById": "0050P000008bXceQAE",
      "lastModifiedByName": "Projeto werise",
      "lastModifiedDate": "1970-01-01T00:00:00.000Z",
      "namespacePrefix": "",
      "type": "CustomObject"
    },
    {
      "createdById": "0050P000008bXceQAE",
      "createdByName": "Projeto werise",
      "createdDate": "2020-06-30T18:25:37.000Z",
      "fileName": "objects/rh2__PS_Rollup_Conditions__c.object",
      "fullName": "rh2__PS_Rollup_Conditions__c",
      "id": "01I2C0000005VkRUAU",
      "lastModifiedById": "0050P000008bXceQAE",
      "lastModifiedByName": "Projeto werise",
      "lastModifiedDate": "2020-06-30T18:26:48.000Z",
      "manageableState": "installed",
      "namespacePrefix": "rh2",
      "type": "CustomObject"
    },
    {
      "createdById": "0050P000008bXceQAE",
      "createdByName": "Projeto werise",
      "createdDate": "2020-06-30T18:25:37.000Z",
      "fileName": "objects/rh2__PS_Settings__c.object",
      "fullName": "rh2__PS_Settings__c",
      "id": "01I2C0000005VkTUAU",
      "lastModifiedById": "0050P000008bXceQAE",
      "lastModifiedByName": "Projeto werise",
      "lastModifiedDate": "2020-06-30T18:25:37.000Z",
      "manageableState": "installed",
      "namespacePrefix": "rh2",
      "type": "CustomObject"
    },
    {
      "createdById": "0050P000008bXceQAE",
      "createdByName": "Projeto werise",
      "createdDate": "1970-01-01T00:00:00.000Z",
      "fileName": "objects/ContractContactRole.object",
      "fullName": "ContractContactRole",
      "id": "",
      "lastModifiedById": "0050P000008bXceQAE",
      "lastModifiedByName": "Projeto werise",
      "lastModifiedDate": "1970-01-01T00:00:00.000Z",
      "namespacePrefix": "",
      "type": "CustomObject"
    },
    {
      "createdById": "0050P000008bXceQAE",
      "createdByName": "Projeto werise",
      "createdDate": "1970-01-01T00:00:00.000Z",
      "fileName": "objects/ForecastingQuota.object",
      "fullName": "ForecastingQuota",
      "id": "",
      "lastModifiedById": "0050P000008bXceQAE",
      "lastModifiedByName": "Projeto werise",
      "lastModifiedDate": "1970-01-01T00:00:00.000Z",
      "namespacePrefix": "",
      "type": "CustomObject"
    },
    {
      "createdById": "0050P000008bXceQAE",
      "createdByName": "Projeto werise",
      "createdDate": "1970-01-01T00:00:00.000Z",
      "fileName": "objects/DuplicateRecordItem.object",
      "fullName": "DuplicateRecordItem",
      "id": "",
      "lastModifiedById": "0050P000008bXceQAE",
      "lastModifiedByName": "Projeto werise",
      "lastModifiedDate": "1970-01-01T00:00:00.000Z",
      "namespacePrefix": "",
      "type": "CustomObject"
    },
    {
      "createdById": "0050P000008bXceQAE",
      "createdByName": "Projeto werise",
      "createdDate": "1970-01-01T00:00:00.000Z",
      "fileName": "objects/Order.object",
      "fullName": "Order",
      "id": "",
      "lastModifiedById": "0050P000008bXceQAE",
      "lastModifiedByName": "Projeto werise",
      "lastModifiedDate": "1970-01-01T00:00:00.000Z",
      "namespacePrefix": "",
      "type": "CustomObject"
    },
    {
      "createdById": "0050P000008bXceQAE",
      "createdByName": "Projeto werise",
      "createdDate": "1970-01-01T00:00:00.000Z",
      "fileName": "objects/Contract.object",
      "fullName": "Contract",
      "id": "",
      "lastModifiedById": "0050P000008bXceQAE",
      "lastModifiedByName": "Projeto werise",
      "lastModifiedDate": "1970-01-01T00:00:00.000Z",
      "namespacePrefix": "",
      "type": "CustomObject"
    },
    {
      "createdById": "0050P000008bXceQAE",
      "createdByName": "Projeto werise",
      "createdDate": "1970-01-01T00:00:00.000Z",
      "fileName": "objects/PricebookEntry.object",
      "fullName": "PricebookEntry",
      "id": "",
      "lastModifiedById": "0050P000008bXceQAE",
      "lastModifiedByName": "Projeto werise",
      "lastModifiedDate": "1970-01-01T00:00:00.000Z",
      "namespacePrefix": "",
      "type": "CustomObject"
    },
    {
      "createdById": "0050P000008bXceQAE",
      "createdByName": "Projeto werise",
      "createdDate": "1970-01-01T00:00:00.000Z",
      "fileName": "objects/Quote.object",
      "fullName": "Quote",
      "id": "",
      "lastModifiedById": "0050P000008bXceQAE",
      "lastModifiedByName": "Projeto werise",
      "lastModifiedDate": "1970-01-01T00:00:00.000Z",
      "namespacePrefix": "",
      "type": "CustomObject"
    },
    {
      "createdById": "0050P000008bXceQAE",
      "createdByName": "Projeto werise",
      "createdDate": "1970-01-01T00:00:00.000Z",
      "fileName": "objects/CaseContactRole.object",
      "fullName": "CaseContactRole",
      "id": "",
      "lastModifiedById": "0050P000008bXceQAE",
      "lastModifiedByName": "Projeto werise",
      "lastModifiedDate": "1970-01-01T00:00:00.000Z",
      "namespacePrefix": "",
      "type": "CustomObject"
    },
    {
      "createdById": "0050P000007c5m0QAA",
      "createdByName": "Marcos Araujo de Souza",
      "createdDate": "2019-07-01T13:21:12.000Z",
      "fileName": "objects/cwbtool__Component__c.object",
      "fullName": "cwbtool__Component__c",
      "id": "01I0P000000uefgUAA",
      "lastModifiedById": "0050P000007c5m0QAA",
      "lastModifiedByName": "Marcos Araujo de Souza",
      "lastModifiedDate": "2019-07-01T13:22:48.000Z",
      "manageableState": "installed",
      "namespacePrefix": "cwbtool",
      "type": "CustomObject"
    },
    {
      "createdById": "0050P000008bXceQAE",
      "createdByName": "Projeto werise",
      "createdDate": "2020-06-30T18:25:37.000Z",
      "fileName": "objects/rh2__Rollup_Helper_Record_Scope__c.object",
      "fullName": "rh2__Rollup_Helper_Record_Scope__c",
      "id": "01I2C0000005VkVUAU",
      "lastModifiedById": "0050P000008bXceQAE",
      "lastModifiedByName": "Projeto werise",
      "lastModifiedDate": "2020-06-30T18:25:37.000Z",
      "manageableState": "installed",
      "namespacePrefix": "rh2",
      "type": "CustomObject"
    },
    {
      "createdById": "0050P000007c5m0QAA",
      "createdByName": "Marcos Araujo de Souza",
      "createdDate": "2019-07-01T13:21:13.000Z",
      "fileName": "objects/cwbtool__FieldTrack__c.object",
      "fullName": "cwbtool__FieldTrack__c",
      "id": "01I0P000000uefmUAA",
      "lastModifiedById": "0050P000007c5m0QAA",
      "lastModifiedByName": "Marcos Araujo de Souza",
      "lastModifiedDate": "2019-07-01T13:22:50.000Z",
      "manageableState": "installed",
      "namespacePrefix": "cwbtool",
      "type": "CustomObject"
    },
    {
      "createdById": "0050P000008bXceQAE",
      "createdByName": "Projeto werise",
      "createdDate": "1970-01-01T00:00:00.000Z",
      "fileName": "objects/WorkBadge.object",
      "fullName": "WorkBadge",
      "id": "",
      "lastModifiedById": "0050P000008bXceQAE",
      "lastModifiedByName": "Projeto werise",
      "lastModifiedDate": "1970-01-01T00:00:00.000Z",
      "namespacePrefix": "",
      "type": "CustomObject"
    },
    {
      "createdById": "0050P000008bXceQAE",
      "createdByName": "Projeto werise",
      "createdDate": "1970-01-01T00:00:00.000Z",
      "fileName": "objects/ContentVersion.object",
      "fullName": "ContentVersion",
      "id": "",
      "lastModifiedById": "0050P000008bXceQAE",
      "lastModifiedByName": "Projeto werise",
      "lastModifiedDate": "1970-01-01T00:00:00.000Z",
      "namespacePrefix": "",
      "type": "CustomObject"
    },
    {
      "createdById": "0050P000008bXceQAE",
      "createdByName": "Projeto werise",
      "createdDate": "1970-01-01T00:00:00.000Z",
      "fileName": "objects/CollaborationGroup.object",
      "fullName": "CollaborationGroup",
      "id": "",
      "lastModifiedById": "0050P000008bXceQAE",
      "lastModifiedByName": "Projeto werise",
      "lastModifiedDate": "1970-01-01T00:00:00.000Z",
      "namespacePrefix": "",
      "type": "CustomObject"
    },
    {
      "createdById": "0050P000008bXceQAE",
      "createdByName": "Projeto werise",
      "createdDate": "1970-01-01T00:00:00.000Z",
      "fileName": "objects/QuickTextUsage.object",
      "fullName": "QuickTextUsage",
      "id": "",
      "lastModifiedById": "0050P000008bXceQAE",
      "lastModifiedByName": "Projeto werise",
      "lastModifiedDate": "1970-01-01T00:00:00.000Z",
      "namespacePrefix": "",
      "type": "CustomObject"
    },
    {
      "createdById": "0050P000008bXceQAE",
      "createdByName": "Projeto werise",
      "createdDate": "1970-01-01T00:00:00.000Z",
      "fileName": "objects/Asset.object",
      "fullName": "Asset",
      "id": "",
      "lastModifiedById": "0050P000008bXceQAE",
      "lastModifiedByName": "Projeto werise",
      "lastModifiedDate": "1970-01-01T00:00:00.000Z",
      "namespacePrefix": "",
      "type": "CustomObject"
    },
    {
      "createdById": "0050P000007c5m0QAA",
      "createdByName": "Marcos Araujo de Souza",
      "createdDate": "2019-07-01T13:21:13.000Z",
      "fileName": "objects/cwbtool__MetadataDictionary__c.object",
      "fullName": "cwbtool__MetadataDictionary__c",
      "id": "01I0P000000uefoUAA",
      "lastModifiedById": "0050P000007c5m0QAA",
      "lastModifiedByName": "Marcos Araujo de Souza",
      "lastModifiedDate": "2019-07-01T13:22:50.000Z",
      "manageableState": "installed",
      "namespacePrefix": "cwbtool",
      "type": "CustomObject"
    },
    {
      "createdById": "0050P000008bXceQAE",
      "createdByName": "Projeto werise",
      "createdDate": "1970-01-01T00:00:00.000Z",
      "fileName": "objects/Image.object",
      "fullName": "Image",
      "id": "",
      "lastModifiedById": "0050P000008bXceQAE",
      "lastModifiedByName": "Projeto werise",
      "lastModifiedDate": "1970-01-01T00:00:00.000Z",
      "namespacePrefix": "",
      "type": "CustomObject"
    },
    {
      "createdById": "0050P000008bXceQAE",
      "createdByName": "Projeto werise",
      "createdDate": "1970-01-01T00:00:00.000Z",
      "fileName": "objects/AssociatedLocation.object",
      "fullName": "AssociatedLocation",
      "id": "",
      "lastModifiedById": "0050P000008bXceQAE",
      "lastModifiedByName": "Projeto werise",
      "lastModifiedDate": "1970-01-01T00:00:00.000Z",
      "namespacePrefix": "",
      "type": "CustomObject"
    },
    {
      "createdById": "0050P000008bXceQAE",
      "createdByName": "Projeto werise",
      "createdDate": "1970-01-01T00:00:00.000Z",
      "fileName": "objects/Recommendation.object",
      "fullName": "Recommendation",
      "id": "",
      "lastModifiedById": "0050P000008bXceQAE",
      "lastModifiedByName": "Projeto werise",
      "lastModifiedDate": "1970-01-01T00:00:00.000Z",
      "namespacePrefix": "",
      "type": "CustomObject"
    },
    {
      "createdById": "0050P000008bXceQAE",
      "createdByName": "Projeto werise",
      "createdDate": "1970-01-01T00:00:00.000Z",
      "fileName": "objects/TopicAssignment.object",
      "fullName": "TopicAssignment",
      "id": "",
      "lastModifiedById": "0050P000008bXceQAE",
      "lastModifiedByName": "Projeto werise",
      "lastModifiedDate": "1970-01-01T00:00:00.000Z",
      "namespacePrefix": "",
      "type": "CustomObject"
    },
    {
      "createdById": "0050P000007MexNQAS",
      "createdByName": "Fellipe Borges",
      "createdDate": "2017-11-29T11:19:05.000Z",
      "fileName": "objects/Zendesk__Host_Mapping__c.object",
      "fullName": "Zendesk__Host_Mapping__c",
      "id": "01I0P000000pnv2UAA",
      "lastModifiedById": "0050P000007MexNQAS",
      "lastModifiedByName": "Fellipe Borges",
      "lastModifiedDate": "2017-11-29T11:20:41.000Z",
      "manageableState": "installed",
      "namespacePrefix": "Zendesk",
      "type": "CustomObject"
    },
    {
      "createdById": "0050P000008bXceQAE",
      "createdByName": "Projeto werise",
      "createdDate": "1970-01-01T00:00:00.000Z",
      "fileName": "objects/ExternalEventMapping.object",
      "fullName": "ExternalEventMapping",
      "id": "",
      "lastModifiedById": "0050P000008bXceQAE",
      "lastModifiedByName": "Projeto werise",
      "lastModifiedDate": "1970-01-01T00:00:00.000Z",
      "namespacePrefix": "",
      "type": "CustomObject"
    },
    {
      "createdById": "0050P000007MexNQAS",
      "createdByName": "Fellipe Borges",
      "createdDate": "2017-11-29T11:19:08.000Z",
      "fileName": "objects/Zendesk__Zendesk_Widget_Entity__c.object",
      "fullName": "Zendesk__Zendesk_Widget_Entity__c",
      "id": "01I0P000000pnvRUAQ",
      "lastModifiedById": "0050P000007MexNQAS",
      "lastModifiedByName": "Fellipe Borges",
      "lastModifiedDate": "2017-11-29T11:20:43.000Z",
      "manageableState": "installed",
      "namespacePrefix": "Zendesk",
      "type": "CustomObject"
    },
    {
      "createdById": "0050P000008bXceQAE",
      "createdByName": "Projeto werise",
      "createdDate": "1970-01-01T00:00:00.000Z",
      "fileName": "objects/Task.object",
      "fullName": "Task",
      "id": "",
      "lastModifiedById": "0050P000008bXceQAE",
      "lastModifiedByName": "Projeto werise",
      "lastModifiedDate": "1970-01-01T00:00:00.000Z",
      "namespacePrefix": "",
      "type": "CustomObject"
    },
    {
      "createdById": "0050P000008bXceQAE",
      "createdByName": "Projeto werise",
      "createdDate": "1970-01-01T00:00:00.000Z",
      "fileName": "objects/User.object",
      "fullName": "User",
      "id": "",
      "lastModifiedById": "0050P000008bXceQAE",
      "lastModifiedByName": "Projeto werise",
      "lastModifiedDate": "1970-01-01T00:00:00.000Z",
      "namespacePrefix": "",
      "type": "CustomObject"
    },
    {
      "createdById": "0050P000008bXceQAE",
      "createdByName": "Projeto werise",
      "createdDate": "1970-01-01T00:00:00.000Z",
      "fileName": "objects/Pricebook2.object",
      "fullName": "Pricebook2",
      "id": "",
      "lastModifiedById": "0050P000008bXceQAE",
      "lastModifiedByName": "Projeto werise",
      "lastModifiedDate": "1970-01-01T00:00:00.000Z",
      "namespacePrefix": "",
      "type": "CustomObject"
    },
    {
      "createdById": "0050P000008bXceQAE",
      "createdByName": "Projeto werise",
      "createdDate": "1970-01-01T00:00:00.000Z",
      "fileName": "objects/ContactPointTypeConsent.object",
      "fullName": "ContactPointTypeConsent",
      "id": "",
      "lastModifiedById": "0050P000008bXceQAE",
      "lastModifiedByName": "Projeto werise",
      "lastModifiedDate": "1970-01-01T00:00:00.000Z",
      "namespacePrefix": "",
      "type": "CustomObject"
    },
    {
      "createdById": "0050P000008bXceQAE",
      "createdByName": "Projeto werise",
      "createdDate": "1970-01-01T00:00:00.000Z",
      "fileName": "objects/ScorecardMetric.object",
      "fullName": "ScorecardMetric",
      "id": "",
      "lastModifiedById": "0050P000008bXceQAE",
      "lastModifiedByName": "Projeto werise",
      "lastModifiedDate": "1970-01-01T00:00:00.000Z",
      "namespacePrefix": "",
      "type": "CustomObject"
    },
    {
      "createdById": "0050P000007MexNQAS",
      "createdByName": "Fellipe Borges",
      "createdDate": "2017-11-29T11:19:07.000Z",
      "fileName": "objects/Zendesk__Zendesk_Sync_Job__c.object",
      "fullName": "Zendesk__Zendesk_Sync_Job__c",
      "id": "01I0P000000pnvLUAQ",
      "lastModifiedById": "0050P000007MexNQAS",
      "lastModifiedByName": "Fellipe Borges",
      "lastModifiedDate": "2017-11-29T11:20:42.000Z",
      "manageableState": "installed",
      "namespacePrefix": "Zendesk",
      "type": "CustomObject"
    },
    {
      "createdById": "0050P000008bXceQAE",
      "createdByName": "Projeto werise",
      "createdDate": "1970-01-01T00:00:00.000Z",
      "fileName": "objects/RecordMergeHistory.object",
      "fullName": "RecordMergeHistory",
      "id": "",
      "lastModifiedById": "0050P000008bXceQAE",
      "lastModifiedByName": "Projeto werise",
      "lastModifiedDate": "1970-01-01T00:00:00.000Z",
      "namespacePrefix": "",
      "type": "CustomObject"
    },
    {
      "createdById": "0050P000007MexNQAS",
      "createdByName": "Fellipe Borges",
      "createdDate": "2017-11-29T11:19:08.000Z",
      "fileName": "objects/Zendesk__Zendesk_Ticket_Mapping__c.object",
      "fullName": "Zendesk__Zendesk_Ticket_Mapping__c",
      "id": "01I0P000000pnvPUAQ",
      "lastModifiedById": "0050P000007MexNQAS",
      "lastModifiedByName": "Fellipe Borges",
      "lastModifiedDate": "2017-11-29T11:20:43.000Z",
      "manageableState": "installed",
      "namespacePrefix": "Zendesk",
      "type": "CustomObject"
    },
    {
      "createdById": "0050P000008bXceQAE",
      "createdByName": "Projeto werise",
      "createdDate": "1970-01-01T00:00:00.000Z",
      "fileName": "objects/OrderItem.object",
      "fullName": "OrderItem",
      "id": "",
      "lastModifiedById": "0050P000008bXceQAE",
      "lastModifiedByName": "Projeto werise",
      "lastModifiedDate": "1970-01-01T00:00:00.000Z",
      "namespacePrefix": "",
      "type": "CustomObject"
    },
    {
      "createdById": "0050P000008bXceQAE",
      "createdByName": "Projeto werise",
      "createdDate": "1970-01-01T00:00:00.000Z",
      "fileName": "objects/AuthorizationFormConsent.object",
      "fullName": "AuthorizationFormConsent",
      "id": "",
      "lastModifiedById": "0050P000008bXceQAE",
      "lastModifiedByName": "Projeto werise",
      "lastModifiedDate": "1970-01-01T00:00:00.000Z",
      "namespacePrefix": "",
      "type": "CustomObject"
    },
    {
      "createdById": "0050P000008bXceQAE",
      "createdByName": "Projeto werise",
      "createdDate": "1970-01-01T00:00:00.000Z",
      "fileName": "objects/Site.object",
      "fullName": "Site",
      "id": "",
      "lastModifiedById": "0050P000008bXceQAE",
      "lastModifiedByName": "Projeto werise",
      "lastModifiedDate": "1970-01-01T00:00:00.000Z",
      "namespacePrefix": "",
      "type": "CustomObject"
    },
    {
      "createdById": "0050P000008bXceQAE",
      "createdByName": "Projeto werise",
      "createdDate": "1970-01-01T00:00:00.000Z",
      "fileName": "objects/ChannelProgramMember.object",
      "fullName": "ChannelProgramMember",
      "id": "",
      "lastModifiedById": "0050P000008bXceQAE",
      "lastModifiedByName": "Projeto werise",
      "lastModifiedDate": "1970-01-01T00:00:00.000Z",
      "namespacePrefix": "",
      "type": "CustomObject"
    },
    {
      "createdById": "0050P000008bXceQAE",
      "createdByName": "Projeto werise",
      "createdDate": "1970-01-01T00:00:00.000Z",
      "fileName": "objects/StreamingChannel.object",
      "fullName": "StreamingChannel",
      "id": "",
      "lastModifiedById": "0050P000008bXceQAE",
      "lastModifiedByName": "Projeto werise",
      "lastModifiedDate": "1970-01-01T00:00:00.000Z",
      "namespacePrefix": "",
      "type": "CustomObject"
    },
    {
      "createdById": "0050P000008bXceQAE",
      "createdByName": "Projeto werise",
      "createdDate": "1970-01-01T00:00:00.000Z",
      "fileName": "objects/MLModelFactorComponent.object",
      "fullName": "MLModelFactorComponent",
      "id": "",
      "lastModifiedById": "0050P000008bXceQAE",
      "lastModifiedByName": "Projeto werise",
      "lastModifiedDate": "1970-01-01T00:00:00.000Z",
      "namespacePrefix": "",
      "type": "CustomObject"
    },
    {
      "createdById": "0050P000008bXceQAE",
      "createdByName": "Projeto werise",
      "createdDate": "1970-01-01T00:00:00.000Z",
      "fileName": "objects/CommSubscriptionTiming.object",
      "fullName": "CommSubscriptionTiming",
      "id": "",
      "lastModifiedById": "0050P000008bXceQAE",
      "lastModifiedByName": "Projeto werise",
      "lastModifiedDate": "1970-01-01T00:00:00.000Z",
      "namespacePrefix": "",
      "type": "CustomObject"
    },
    {
      "createdById": "0050P000008bXceQAE",
      "createdByName": "Projeto werise",
      "createdDate": "1970-01-01T00:00:00.000Z",
      "fileName": "objects/Contact.object",
      "fullName": "Contact",
      "id": "",
      "lastModifiedById": "0050P000008bXceQAE",
      "lastModifiedByName": "Projeto werise",
      "lastModifiedDate": "1970-01-01T00:00:00.000Z",
      "namespacePrefix": "",
      "type": "CustomObject"
    },
    {
      "createdById": "0050P000008bXceQAE",
      "createdByName": "Projeto werise",
      "createdDate": "1970-01-01T00:00:00.000Z",
      "fileName": "objects/MacroInstruction.object",
      "fullName": "MacroInstruction",
      "id": "",
      "lastModifiedById": "0050P000008bXceQAE",
      "lastModifiedByName": "Projeto werise",
      "lastModifiedDate": "1970-01-01T00:00:00.000Z",
      "namespacePrefix": "",
      "type": "CustomObject"
    },
    {
      "createdById": "0052C000002I4DtQAK",
      "createdByName": "Rollup Helper",
      "createdDate": "2020-07-08T03:53:18.000Z",
      "fileName": "objects/rh2__PS_Rollup_Group__c.object",
      "fullName": "rh2__PS_Rollup_Group__c",
      "id": "01I2C0000005WJAUA2",
      "lastModifiedById": "0052C000002I4DtQAK",
      "lastModifiedByName": "Rollup Helper",
      "lastModifiedDate": "2021-01-19T04:20:09.000Z",
      "manageableState": "installed",
      "namespacePrefix": "rh2",
      "type": "CustomObject"
    },
    {
      "createdById": "0050P000008bXceQAE",
      "createdByName": "Projeto werise",
      "createdDate": "1970-01-01T00:00:00.000Z",
      "fileName": "objects/LocationTrustMeasure.object",
      "fullName": "LocationTrustMeasure",
      "id": "",
      "lastModifiedById": "0050P000008bXceQAE",
      "lastModifiedByName": "Projeto werise",
      "lastModifiedDate": "1970-01-01T00:00:00.000Z",
      "namespacePrefix": "",
      "type": "CustomObject"
    },
    {
      "createdById": "0050P000008bXceQAE",
      "createdByName": "Projeto werise",
      "createdDate": "1970-01-01T00:00:00.000Z",
      "fileName": "objects/MacroAction.object",
      "fullName": "MacroAction",
      "id": "",
      "lastModifiedById": "0050P000008bXceQAE",
      "lastModifiedByName": "Projeto werise",
      "lastModifiedDate": "1970-01-01T00:00:00.000Z",
      "namespacePrefix": "",
      "type": "CustomObject"
    },
    {
      "createdById": "0050P000008bXceQAE",
      "createdByName": "Projeto werise",
      "createdDate": "1970-01-01T00:00:00.000Z",
      "fileName": "objects/Individual.object",
      "fullName": "Individual",
      "id": "",
      "lastModifiedById": "0050P000008bXceQAE",
      "lastModifiedByName": "Projeto werise",
      "lastModifiedDate": "1970-01-01T00:00:00.000Z",
      "namespacePrefix": "",
      "type": "CustomObject"
    },
    {
      "createdById": "0050P000008bXceQAE",
      "createdByName": "Projeto werise",
      "createdDate": "1970-01-01T00:00:00.000Z",
      "fileName": "objects/ExpressionFilter.object",
      "fullName": "ExpressionFilter",
      "id": "",
      "lastModifiedById": "0050P000008bXceQAE",
      "lastModifiedByName": "Projeto werise",
      "lastModifiedDate": "1970-01-01T00:00:00.000Z",
      "namespacePrefix": "",
      "type": "CustomObject"
    },
    {
      "createdById": "0050P000008bXceQAE",
      "createdByName": "Projeto werise",
      "createdDate": "1970-01-01T00:00:00.000Z",
      "fileName": "objects/EmailMessage.object",
      "fullName": "EmailMessage",
      "id": "",
      "lastModifiedById": "0050P000008bXceQAE",
      "lastModifiedByName": "Projeto werise",
      "lastModifiedDate": "1970-01-01T00:00:00.000Z",
      "namespacePrefix": "",
      "type": "CustomObject"
    },
    {
      "createdById": "0050P000007c5m0QAA",
      "createdByName": "Marcos Araujo de Souza",
      "createdDate": "2019-07-01T13:21:13.000Z",
      "fileName": "objects/cwbtool__Record_Process__c.object",
      "fullName": "cwbtool__Record_Process__c",
      "id": "01I0P000000uefqUAA",
      "lastModifiedById": "0050P000007c5m0QAA",
      "lastModifiedByName": "Marcos Araujo de Souza",
      "lastModifiedDate": "2019-07-01T13:21:13.000Z",
      "manageableState": "installed",
      "namespacePrefix": "cwbtool",
      "type": "CustomObject"
    },
    {
      "createdById": "0050P000008bXceQAE",
      "createdByName": "Projeto werise",
      "createdDate": "1970-01-01T00:00:00.000Z",
      "fileName": "objects/WorkBadgeDefinition.object",
      "fullName": "WorkBadgeDefinition",
      "id": "",
      "lastModifiedById": "0050P000008bXceQAE",
      "lastModifiedByName": "Projeto werise",
      "lastModifiedDate": "1970-01-01T00:00:00.000Z",
      "namespacePrefix": "",
      "type": "CustomObject"
    },
    {
      "createdById": "0050P000008bXceQAE",
      "createdByName": "Projeto werise",
      "createdDate": "1970-01-01T00:00:00.000Z",
      "fileName": "objects/Lead.object",
      "fullName": "Lead",
      "id": "",
      "lastModifiedById": "0050P000008bXceQAE",
      "lastModifiedByName": "Projeto werise",
      "lastModifiedDate": "1970-01-01T00:00:00.000Z",
      "namespacePrefix": "",
      "type": "CustomObject"
    },
    {
      "createdById": "0050P000008bXceQAE",
      "createdByName": "Projeto werise",
      "createdDate": "1970-01-01T00:00:00.000Z",
      "fileName": "objects/ForecastingOwnerAdjustment.object",
      "fullName": "ForecastingOwnerAdjustment",
      "id": "",
      "lastModifiedById": "0050P000008bXceQAE",
      "lastModifiedByName": "Projeto werise",
      "lastModifiedDate": "1970-01-01T00:00:00.000Z",
      "namespacePrefix": "",
      "type": "CustomObject"
    },
    {
      "createdById": "0050P000008bXceQAE",
      "createdByName": "Projeto werise",
      "createdDate": "1970-01-01T00:00:00.000Z",
      "fileName": "objects/ExchangeUserMapping.object",
      "fullName": "ExchangeUserMapping",
      "id": "",
      "lastModifiedById": "0050P000008bXceQAE",
      "lastModifiedByName": "Projeto werise",
      "lastModifiedDate": "1970-01-01T00:00:00.000Z",
      "namespacePrefix": "",
      "type": "CustomObject"
    },
    {
      "createdById": "0050P000008bXceQAE",
      "createdByName": "Projeto werise",
      "createdDate": "1970-01-01T00:00:00.000Z",
      "fileName": "objects/UserProvisioningRequest.object",
      "fullName": "UserProvisioningRequest",
      "id": "",
      "lastModifiedById": "0050P000008bXceQAE",
      "lastModifiedByName": "Projeto werise",
      "lastModifiedDate": "1970-01-01T00:00:00.000Z",
      "namespacePrefix": "",
      "type": "CustomObject"
    },
    {
      "createdById": "0050P000008bXceQAE",
      "createdByName": "Projeto werise",
      "createdDate": "1970-01-01T00:00:00.000Z",
      "fileName": "objects/ProfileSkillUser.object",
      "fullName": "ProfileSkillUser",
      "id": "",
      "lastModifiedById": "0050P000008bXceQAE",
      "lastModifiedByName": "Projeto werise",
      "lastModifiedDate": "1970-01-01T00:00:00.000Z",
      "namespacePrefix": "",
      "type": "CustomObject"
    },
    {
      "createdById": "0050P000007MexNQAS",
      "createdByName": "Fellipe Borges",
      "createdDate": "2017-11-29T11:19:07.000Z",
      "fileName": "objects/Zendesk__Zendesk_Organization__c.object",
      "fullName": "Zendesk__Zendesk_Organization__c",
      "id": "01I0P000000pnvKUAQ",
      "lastModifiedById": "0050P000007MexNQAS",
      "lastModifiedByName": "Fellipe Borges",
      "lastModifiedDate": "2017-11-29T11:20:42.000Z",
      "manageableState": "installed",
      "namespacePrefix": "Zendesk",
      "type": "CustomObject"
    },
    {
      "createdById": "0050P000008bXceQAE",
      "createdByName": "Projeto werise",
      "createdDate": "2020-06-30T18:25:36.000Z",
      "fileName": "objects/rh2__PS_Exception__c.object",
      "fullName": "rh2__PS_Exception__c",
      "id": "01I2C0000005VkNUAU",
      "lastModifiedById": "0052C000002I4DtQAK",
      "lastModifiedByName": "Rollup Helper",
      "lastModifiedDate": "2021-01-19T04:20:08.000Z",
      "manageableState": "installed",
      "namespacePrefix": "rh2",
      "type": "CustomObject"
    },
    {
      "createdById": "0050P000006xnuLQAQ",
      "createdByName": "Jack Melim",
      "createdDate": "2018-02-26T15:24:17.000Z",
      "fileName": "objects/Internal_Code__c.object",
      "fullName": "Internal_Code__c",
      "id": "01I0P000000ptDnUAI",
      "lastModifiedById": "0050P000006xnuLQAQ",
      "lastModifiedByName": "Jack Melim",
      "lastModifiedDate": "2018-02-26T15:24:20.000Z",
      "manageableState": "unmanaged",
      "type": "CustomObject"
    },
    {
      "createdById": "0050P000008bXceQAE",
      "createdByName": "Projeto werise",
      "createdDate": "1970-01-01T00:00:00.000Z",
      "fileName": "objects/ContactPointAddress.object",
      "fullName": "ContactPointAddress",
      "id": "",
      "lastModifiedById": "0050P000008bXceQAE",
      "lastModifiedByName": "Projeto werise",
      "lastModifiedDate": "1970-01-01T00:00:00.000Z",
      "namespacePrefix": "",
      "type": "CustomObject"
    },
    {
      "createdById": "0050P000008bXceQAE",
      "createdByName": "Projeto werise",
      "createdDate": "1970-01-01T00:00:00.000Z",
      "fileName": "objects/UserTerritory2Association.object",
      "fullName": "UserTerritory2Association",
      "id": "",
      "lastModifiedById": "0050P000008bXceQAE",
      "lastModifiedByName": "Projeto werise",
      "lastModifiedDate": "1970-01-01T00:00:00.000Z",
      "namespacePrefix": "",
      "type": "CustomObject"
    },
    {
      "createdById": "0050P000007MexNQAS",
      "createdByName": "Fellipe Borges",
      "createdDate": "2017-11-29T11:19:07.000Z",
      "fileName": "objects/Zendesk__Zendesk_Domain__c.object",
      "fullName": "Zendesk__Zendesk_Domain__c",
      "id": "01I0P000000pnvIUAQ",
      "lastModifiedById": "0050P000007MexNQAS",
      "lastModifiedByName": "Fellipe Borges",
      "lastModifiedDate": "2017-11-29T11:20:42.000Z",
      "manageableState": "installed",
      "namespacePrefix": "Zendesk",
      "type": "CustomObject"
    },
    {
      "createdById": "0050P000008bXceQAE",
      "createdByName": "Projeto werise",
      "createdDate": "1970-01-01T00:00:00.000Z",
      "fileName": "objects/Account.object",
      "fullName": "Account",
      "id": "",
      "lastModifiedById": "0050P000008bXceQAE",
      "lastModifiedByName": "Projeto werise",
      "lastModifiedDate": "1970-01-01T00:00:00.000Z",
      "namespacePrefix": "",
      "type": "CustomObject"
    },
    {
      "createdById": "0050P000008bXceQAE",
      "createdByName": "Projeto werise",
      "createdDate": "1970-01-01T00:00:00.000Z",
      "fileName": "objects/OpportunityTeamMember.object",
      "fullName": "OpportunityTeamMember",
      "id": "",
      "lastModifiedById": "0050P000008bXceQAE",
      "lastModifiedByName": "Projeto werise",
      "lastModifiedDate": "1970-01-01T00:00:00.000Z",
      "namespacePrefix": "",
      "type": "CustomObject"
    },
    {
      "createdById": "0050P000007c5m0QAA",
      "createdByName": "Marcos Araujo de Souza",
      "createdDate": "2019-07-01T13:21:12.000Z",
      "fileName": "objects/cwbtool__FieldAnalysis__c.object",
      "fullName": "cwbtool__FieldAnalysis__c",
      "id": "01I0P000000ueflUAA",
      "lastModifiedById": "0050P000007c5m0QAA",
      "lastModifiedByName": "Marcos Araujo de Souza",
      "lastModifiedDate": "2019-07-01T13:22:49.000Z",
      "manageableState": "installed",
      "namespacePrefix": "cwbtool",
      "type": "CustomObject"
    },
    {
      "createdById": "0050P000007c5m0QAA",
      "createdByName": "Marcos Araujo de Souza",
      "createdDate": "2019-07-01T13:21:12.000Z",
      "fileName": "objects/cwbtool__ErrorLog__c.object",
      "fullName": "cwbtool__ErrorLog__c",
      "id": "01I0P000000uefkUAA",
      "lastModifiedById": "0050P000007c5m0QAA",
      "lastModifiedByName": "Marcos Araujo de Souza",
      "lastModifiedDate": "2019-07-01T13:22:48.000Z",
      "manageableState": "installed",
      "namespacePrefix": "cwbtool",
      "type": "CustomObject"
    },
    {
      "createdById": "0050P000008bXceQAE",
      "createdByName": "Projeto werise",
      "createdDate": "1970-01-01T00:00:00.000Z",
      "fileName": "objects/RecordAction.object",
      "fullName": "RecordAction",
      "id": "",
      "lastModifiedById": "0050P000008bXceQAE",
      "lastModifiedByName": "Projeto werise",
      "lastModifiedDate": "1970-01-01T00:00:00.000Z",
      "namespacePrefix": "",
      "type": "CustomObject"
    },
    {
      "createdById": "0050P000008bXceQAE",
      "createdByName": "Projeto werise",
      "createdDate": "1970-01-01T00:00:00.000Z",
      "fileName": "objects/DataUseLegalBasis.object",
      "fullName": "DataUseLegalBasis",
      "id": "",
      "lastModifiedById": "0050P000008bXceQAE",
      "lastModifiedByName": "Projeto werise",
      "lastModifiedDate": "1970-01-01T00:00:00.000Z",
      "namespacePrefix": "",
      "type": "CustomObject"
    },
    {
      "createdById": "0050P000008bXceQAE",
      "createdByName": "Projeto werise",
      "createdDate": "1970-01-01T00:00:00.000Z",
      "fileName": "objects/PartyConsent.object",
      "fullName": "PartyConsent",
      "id": "",
      "lastModifiedById": "0050P000008bXceQAE",
      "lastModifiedByName": "Projeto werise",
      "lastModifiedDate": "1970-01-01T00:00:00.000Z",
      "namespacePrefix": "",
      "type": "CustomObject"
    },
    {
      "createdById": "0050P000008bXceQAE",
      "createdByName": "Projeto werise",
      "createdDate": "1970-01-01T00:00:00.000Z",
      "fileName": "objects/ExpressionFilterCriteria.object",
      "fullName": "ExpressionFilterCriteria",
      "id": "",
      "lastModifiedById": "0050P000008bXceQAE",
      "lastModifiedByName": "Projeto werise",
      "lastModifiedDate": "1970-01-01T00:00:00.000Z",
      "namespacePrefix": "",
      "type": "CustomObject"
    },
    {
      "createdById": "0050P000008bXceQAE",
      "createdByName": "Projeto werise",
      "createdDate": "1970-01-01T00:00:00.000Z",
      "fileName": "objects/FeedItem.object",
      "fullName": "FeedItem",
      "id": "",
      "lastModifiedById": "0050P000008bXceQAE",
      "lastModifiedByName": "Projeto werise",
      "lastModifiedDate": "1970-01-01T00:00:00.000Z",
      "namespacePrefix": "",
      "type": "CustomObject"
    },
    {
      "createdById": "0050P000008bXceQAE",
      "createdByName": "Projeto werise",
      "createdDate": "2020-07-16T20:05:26.000Z",
      "fileName": "objects/RDStation_Auth__c.object",
      "fullName": "RDStation_Auth__c",
      "id": "01I2C0000005X5nUAE",
      "lastModifiedById": "0050P000008bXceQAE",
      "lastModifiedByName": "Projeto werise",
      "lastModifiedDate": "2020-07-16T22:10:08.000Z",
      "manageableState": "unmanaged",
      "type": "CustomObject"
    },
    {
      "createdById": "0050P000008bXceQAE",
      "createdByName": "Projeto werise",
      "createdDate": "1970-01-01T00:00:00.000Z",
      "fileName": "objects/ContactPointConsent.object",
      "fullName": "ContactPointConsent",
      "id": "",
      "lastModifiedById": "0050P000008bXceQAE",
      "lastModifiedByName": "Projeto werise",
      "lastModifiedDate": "1970-01-01T00:00:00.000Z",
      "namespacePrefix": "",
      "type": "CustomObject"
    },
    {
      "createdById": "0050P000008bXceQAE",
      "createdByName": "Projeto werise",
      "createdDate": "1970-01-01T00:00:00.000Z",
      "fileName": "objects/AccountContactRole.object",
      "fullName": "AccountContactRole",
      "id": "",
      "lastModifiedById": "0050P000008bXceQAE",
      "lastModifiedByName": "Projeto werise",
      "lastModifiedDate": "1970-01-01T00:00:00.000Z",
      "namespacePrefix": "",
      "type": "CustomObject"
    },
    {
      "createdById": "0050P000008bXceQAE",
      "createdByName": "Projeto werise",
      "createdDate": "1970-01-01T00:00:00.000Z",
      "fileName": "objects/ProfileSkill.object",
      "fullName": "ProfileSkill",
      "id": "",
      "lastModifiedById": "0050P000008bXceQAE",
      "lastModifiedByName": "Projeto werise",
      "lastModifiedDate": "1970-01-01T00:00:00.000Z",
      "namespacePrefix": "",
      "type": "CustomObject"
    },
    {
      "createdById": "0050P000008bXceQAE",
      "createdByName": "Projeto werise",
      "createdDate": "1970-01-01T00:00:00.000Z",
      "fileName": "objects/ChannelProgramLevel.object",
      "fullName": "ChannelProgramLevel",
      "id": "",
      "lastModifiedById": "0050P000008bXceQAE",
      "lastModifiedByName": "Projeto werise",
      "lastModifiedDate": "1970-01-01T00:00:00.000Z",
      "namespacePrefix": "",
      "type": "CustomObject"
    },
    {
      "createdById": "0050P000008bXceQAE",
      "createdByName": "Projeto werise",
      "createdDate": "1970-01-01T00:00:00.000Z",
      "fileName": "objects/Solution.object",
      "fullName": "Solution",
      "id": "",
      "lastModifiedById": "0050P000008bXceQAE",
      "lastModifiedByName": "Projeto werise",
      "lastModifiedDate": "1970-01-01T00:00:00.000Z",
      "namespacePrefix": "",
      "type": "CustomObject"
    },
    {
      "createdById": "0050P000008bXceQAE",
      "createdByName": "Projeto werise",
      "createdDate": "1970-01-01T00:00:00.000Z",
      "fileName": "objects/DelegatedAccount.object",
      "fullName": "DelegatedAccount",
      "id": "",
      "lastModifiedById": "0050P000008bXceQAE",
      "lastModifiedByName": "Projeto werise",
      "lastModifiedDate": "1970-01-01T00:00:00.000Z",
      "namespacePrefix": "",
      "type": "CustomObject"
    },
    {
      "createdById": "0050P000007MexNQAS",
      "createdByName": "Fellipe Borges",
      "createdDate": "2017-11-29T11:19:06.000Z",
      "fileName": "objects/Zendesk__ZendeskCustomFieldValue__c.object",
      "fullName": "Zendesk__ZendeskCustomFieldValue__c",
      "id": "01I0P000000pnv6UAA",
      "lastModifiedById": "0050P000007MexNQAS",
      "lastModifiedByName": "Fellipe Borges",
      "lastModifiedDate": "2017-11-29T11:20:42.000Z",
      "manageableState": "installed",
      "namespacePrefix": "Zendesk",
      "type": "CustomObject"
    },
    {
      "createdById": "0050P000006xnuLQAQ",
      "createdByName": "Jack Melim",
      "createdDate": "2018-02-26T15:24:16.000Z",
      "fileName": "objects/Application_Monitoring_Log__c.object",
      "fullName": "Application_Monitoring_Log__c",
      "id": "01I0P000000ptDlUAI",
      "lastModifiedById": "0050P000007MexNQAS",
      "lastModifiedByName": "Fellipe Borges",
      "lastModifiedDate": "2018-04-17T12:03:35.000Z",
      "manageableState": "unmanaged",
      "type": "CustomObject"
    },
    {
      "createdById": "0050P000008bXceQAE",
      "createdByName": "Projeto werise",
      "createdDate": "1970-01-01T00:00:00.000Z",
      "fileName": "objects/MLModelFactor.object",
      "fullName": "MLModelFactor",
      "id": "",
      "lastModifiedById": "0050P000008bXceQAE",
      "lastModifiedByName": "Projeto werise",
      "lastModifiedDate": "1970-01-01T00:00:00.000Z",
      "namespacePrefix": "",
      "type": "CustomObject"
    },
    {
      "createdById": "0050P000008bXceQAE",
      "createdByName": "Projeto werise",
      "createdDate": "2020-06-30T18:25:37.000Z",
      "fileName": "objects/rh2__PS_Rollup_Dummy__c.object",
      "fullName": "rh2__PS_Rollup_Dummy__c",
      "id": "01I2C0000005VkSUAU",
      "lastModifiedById": "0052C000002I4DtQAK",
      "lastModifiedByName": "Rollup Helper",
      "lastModifiedDate": "2021-01-19T04:20:08.000Z",
      "manageableState": "installed",
      "namespacePrefix": "rh2",
      "type": "CustomObject"
    },
    {
      "createdById": "0050P000008bXceQAE",
      "createdByName": "Projeto werise",
      "createdDate": "1970-01-01T00:00:00.000Z",
      "fileName": "objects/DataUsePurpose.object",
      "fullName": "DataUsePurpose",
      "id": "",
      "lastModifiedById": "0050P000008bXceQAE",
      "lastModifiedByName": "Projeto werise",
      "lastModifiedDate": "1970-01-01T00:00:00.000Z",
      "namespacePrefix": "",
      "type": "CustomObject"
    },
    {
      "createdById": "0050P000007MexNQAS",
      "createdByName": "Fellipe Borges",
      "createdDate": "2017-11-29T11:19:07.000Z",
      "fileName": "objects/Zendesk__Zendesk_Bulk_Sync_Response__c.object",
      "fullName": "Zendesk__Zendesk_Bulk_Sync_Response__c",
      "id": "01I0P000000pnvHUAQ",
      "lastModifiedById": "0050P000007MexNQAS",
      "lastModifiedByName": "Fellipe Borges",
      "lastModifiedDate": "2017-11-29T11:20:42.000Z",
      "manageableState": "installed",
      "namespacePrefix": "Zendesk",
      "type": "CustomObject"
    },
    {
      "createdById": "0050P000008bXceQAE",
      "createdByName": "Projeto werise",
      "createdDate": "1970-01-01T00:00:00.000Z",
      "fileName": "objects/ChatterActivity.object",
      "fullName": "ChatterActivity",
      "id": "",
      "lastModifiedById": "0050P000008bXceQAE",
      "lastModifiedByName": "Projeto werise",
      "lastModifiedDate": "1970-01-01T00:00:00.000Z",
      "namespacePrefix": "",
      "type": "CustomObject"
    },
    {
      "createdById": "0050P000008bXceQAE",
      "createdByName": "Projeto werise",
      "createdDate": "1970-01-01T00:00:00.000Z",
      "fileName": "objects/CommSubscriptionChannelType.object",
      "fullName": "CommSubscriptionChannelType",
      "id": "",
      "lastModifiedById": "0050P000008bXceQAE",
      "lastModifiedByName": "Projeto werise",
      "lastModifiedDate": "1970-01-01T00:00:00.000Z",
      "namespacePrefix": "",
      "type": "CustomObject"
    },
    {
      "createdById": "0050P000008bXceQAE",
      "createdByName": "Projeto werise",
      "createdDate": "2020-06-30T18:25:35.000Z",
      "fileName": "objects/rh2__Filter__c.object",
      "fullName": "rh2__Filter__c",
      "id": "01I2C0000005VkKUAU",
      "lastModifiedById": "0052C000002I4DtQAK",
      "lastModifiedByName": "Rollup Helper",
      "lastModifiedDate": "2021-01-19T04:20:06.000Z",
      "manageableState": "installed",
      "namespacePrefix": "rh2",
      "type": "CustomObject"
    },
    {
      "createdById": "0050P000008bXceQAE",
      "createdByName": "Projeto werise",
      "createdDate": "1970-01-01T00:00:00.000Z",
      "fileName": "objects/Location.object",
      "fullName": "Location",
      "id": "",
      "lastModifiedById": "0050P000008bXceQAE",
      "lastModifiedByName": "Projeto werise",
      "lastModifiedDate": "1970-01-01T00:00:00.000Z",
      "namespacePrefix": "",
      "type": "CustomObject"
    },
    {
      "createdById": "0050P000008bXceQAE",
      "createdByName": "Projeto werise",
      "createdDate": "1970-01-01T00:00:00.000Z",
      "fileName": "objects/OpportunitySplit.object",
      "fullName": "OpportunitySplit",
      "id": "",
      "lastModifiedById": "0050P000008bXceQAE",
      "lastModifiedByName": "Projeto werise",
      "lastModifiedDate": "1970-01-01T00:00:00.000Z",
      "namespacePrefix": "",
      "type": "CustomObject"
    },
    {
      "createdById": "0050P000008bXceQAE",
      "createdByName": "Projeto werise",
      "createdDate": "2020-06-30T18:25:36.000Z",
      "fileName": "objects/rh2__PS_Object_Realtime__c.object",
      "fullName": "rh2__PS_Object_Realtime__c",
      "id": "01I2C0000005VkPUAU",
      "lastModifiedById": "0050P000008bXceQAE",
      "lastModifiedByName": "Projeto werise",
      "lastModifiedDate": "2020-06-30T18:25:36.000Z",
      "manageableState": "installed",
      "namespacePrefix": "rh2",
      "type": "CustomObject"
    },
    {
      "createdById": "0050P000007c5m0QAA",
      "createdByName": "Marcos Araujo de Souza",
      "createdDate": "2019-07-01T13:21:13.000Z",
      "fileName": "objects/cwbtool__ProfileComparison__c.object",
      "fullName": "cwbtool__ProfileComparison__c",
      "id": "01I0P000000uefpUAA",
      "lastModifiedById": "0050P000007c5m0QAA",
      "lastModifiedByName": "Marcos Araujo de Souza",
      "lastModifiedDate": "2019-07-01T13:22:50.000Z",
      "manageableState": "installed",
      "namespacePrefix": "cwbtool",
      "type": "CustomObject"
    },
    {
      "createdById": "0050P000008bXceQAE",
      "createdByName": "Projeto werise",
      "createdDate": "1970-01-01T00:00:00.000Z",
      "fileName": "objects/AccountBrand.object",
      "fullName": "AccountBrand",
      "id": "",
      "lastModifiedById": "0050P000008bXceQAE",
      "lastModifiedByName": "Projeto werise",
      "lastModifiedDate": "1970-01-01T00:00:00.000Z",
      "namespacePrefix": "",
      "type": "CustomObject"
    },
    {
      "createdById": "0050P000008bXceQAE",
      "createdByName": "Projeto werise",
      "createdDate": "1970-01-01T00:00:00.000Z",
      "fileName": "objects/ScorecardAssociation.object",
      "fullName": "ScorecardAssociation",
      "id": "",
      "lastModifiedById": "0050P000008bXceQAE",
      "lastModifiedByName": "Projeto werise",
      "lastModifiedDate": "1970-01-01T00:00:00.000Z",
      "namespacePrefix": "",
      "type": "CustomObject"
    },
    {
      "createdById": "0050P000007c5m0QAA",
      "createdByName": "Marcos Araujo de Souza",
      "createdDate": "2019-07-01T13:21:12.000Z",
      "fileName": "objects/cwbtool__CWB_Setup__c.object",
      "fullName": "cwbtool__CWB_Setup__c",
      "id": "01I0P000000ueffUAA",
      "lastModifiedById": "0050P000007c5m0QAA",
      "lastModifiedByName": "Marcos Araujo de Souza",
      "lastModifiedDate": "2019-07-01T13:21:12.000Z",
      "manageableState": "installed",
      "namespacePrefix": "cwbtool",
      "type": "CustomObject"
    },
    {
      "createdById": "0050P000008bXceQAE",
      "createdByName": "Projeto werise",
      "createdDate": "1970-01-01T00:00:00.000Z",
      "fileName": "objects/PartnerRole.object",
      "fullName": "PartnerRole",
      "id": "",
      "lastModifiedById": "0050P000008bXceQAE",
      "lastModifiedByName": "Projeto werise",
      "lastModifiedDate": "1970-01-01T00:00:00.000Z",
      "namespacePrefix": "",
      "type": "CustomObject"
    },
    {
      "createdById": "0050P000008bXceQAE",
      "createdByName": "Projeto werise",
      "createdDate": "1970-01-01T00:00:00.000Z",
      "fileName": "objects/Macro.object",
      "fullName": "Macro",
      "id": "",
      "lastModifiedById": "0050P000008bXceQAE",
      "lastModifiedByName": "Projeto werise",
      "lastModifiedDate": "1970-01-01T00:00:00.000Z",
      "namespacePrefix": "",
      "type": "CustomObject"
    },
    {
      "createdById": "0050P000008bXceQAE",
      "createdByName": "Projeto werise",
      "createdDate": "1970-01-01T00:00:00.000Z",
      "fileName": "objects/Territory2.object",
      "fullName": "Territory2",
      "id": "",
      "lastModifiedById": "0050P000008bXceQAE",
      "lastModifiedByName": "Projeto werise",
      "lastModifiedDate": "1970-01-01T00:00:00.000Z",
      "namespacePrefix": "",
      "type": "CustomObject"
    },
    {
      "createdById": "0050P000007MexNQAS",
      "createdByName": "Fellipe Borges",
      "createdDate": "2017-11-29T11:19:06.000Z",
      "fileName": "objects/Zendesk__ZendeskCustomField__c.object",
      "fullName": "Zendesk__ZendeskCustomField__c",
      "id": "01I0P000000pnv7UAA",
      "lastModifiedById": "0050P000007MexNQAS",
      "lastModifiedByName": "Fellipe Borges",
      "lastModifiedDate": "2017-11-29T11:20:42.000Z",
      "manageableState": "installed",
      "namespacePrefix": "Zendesk",
      "type": "CustomObject"
    },
    {
      "createdById": "0050P000006xy0CQAQ",
      "createdByName": "Phanikanth Chatakommu",
      "createdDate": "2018-06-19T22:04:02.000Z",
      "fileName": "objects/COLCustomerIntegratedSuccess__e.object",
      "fullName": "COLCustomerIntegratedSuccess__e",
      "id": "01I0P0000012MkxUAE",
      "lastModifiedById": "0050P000006xy0CQAQ",
      "lastModifiedByName": "Phanikanth Chatakommu",
      "lastModifiedDate": "2018-06-19T22:04:02.000Z",
      "manageableState": "unmanaged",
      "type": "CustomObject"
    },
    {
      "createdById": "0050P000007MexNQAS",
      "createdByName": "Fellipe Borges",
      "createdDate": "2017-11-29T11:19:08.000Z",
      "fileName": "objects/Zendesk__Zendesk_Ticket__c.object",
      "fullName": "Zendesk__Zendesk_Ticket__c",
      "id": "01I0P000000pnvQUAQ",
      "lastModifiedById": "0050P000007MexNQAS",
      "lastModifiedByName": "Fellipe Borges",
      "lastModifiedDate": "2017-11-29T11:20:43.000Z",
      "manageableState": "installed",
      "namespacePrefix": "Zendesk",
      "type": "CustomObject"
    },
    {
      "createdById": "0050P000008bXceQAE",
      "createdByName": "Projeto werise",
      "createdDate": "1970-01-01T00:00:00.000Z",
      "fileName": "objects/QuoteLineItem.object",
      "fullName": "QuoteLineItem",
      "id": "",
      "lastModifiedById": "0050P000008bXceQAE",
      "lastModifiedByName": "Projeto werise",
      "lastModifiedDate": "1970-01-01T00:00:00.000Z",
      "namespacePrefix": "",
      "type": "CustomObject"
    },
    {
      "createdById": "0050P000008bXceQAE",
      "createdByName": "Projeto werise",
      "createdDate": "1970-01-01T00:00:00.000Z",
      "fileName": "objects/CampaignMember.object",
      "fullName": "CampaignMember",
      "id": "",
      "lastModifiedById": "0050P000008bXceQAE",
      "lastModifiedByName": "Projeto werise",
      "lastModifiedDate": "1970-01-01T00:00:00.000Z",
      "namespacePrefix": "",
      "type": "CustomObject"
    },
    {
      "createdById": "0050P000007MexNQAS",
      "createdByName": "Fellipe Borges",
      "createdDate": "2017-11-29T11:19:06.000Z",
      "fileName": "objects/Zendesk__ZendeskSession__c.object",
      "fullName": "Zendesk__ZendeskSession__c",
      "id": "01I0P000000pnvAUAQ",
      "lastModifiedById": "0050P000007MexNQAS",
      "lastModifiedByName": "Fellipe Borges",
      "lastModifiedDate": "2017-11-29T11:19:06.000Z",
      "manageableState": "installed",
      "namespacePrefix": "Zendesk",
      "type": "CustomObject"
    },
    {
      "createdById": "0050P000008bXceQAE",
      "createdByName": "Projeto werise",
      "createdDate": "1970-01-01T00:00:00.000Z",
      "fileName": "objects/WorkThanks.object",
      "fullName": "WorkThanks",
      "id": "",
      "lastModifiedById": "0050P000008bXceQAE",
      "lastModifiedByName": "Projeto werise",
      "lastModifiedDate": "1970-01-01T00:00:00.000Z",
      "namespacePrefix": "",
      "type": "CustomObject"
    },
    {
      "createdById": "0050P000007MexNQAS",
      "createdByName": "Fellipe Borges",
      "createdDate": "2017-11-29T11:19:07.000Z",
      "fileName": "objects/Zendesk__Zendesk_Agent_Details__c.object",
      "fullName": "Zendesk__Zendesk_Agent_Details__c",
      "id": "01I0P000000pnvEUAQ",
      "lastModifiedById": "0050P000007MexNQAS",
      "lastModifiedByName": "Fellipe Borges",
      "lastModifiedDate": "2017-11-29T11:20:42.000Z",
      "manageableState": "installed",
      "namespacePrefix": "Zendesk",
      "type": "CustomObject"
    },
    {
      "createdById": "0050P000008bXceQAE",
      "createdByName": "Projeto werise",
      "createdDate": "1970-01-01T00:00:00.000Z",
      "fileName": "objects/Topic.object",
      "fullName": "Topic",
      "id": "",
      "lastModifiedById": "0050P000008bXceQAE",
      "lastModifiedByName": "Projeto werise",
      "lastModifiedDate": "1970-01-01T00:00:00.000Z",
      "namespacePrefix": "",
      "type": "CustomObject"
    },
    {
      "createdById": "0050P000008bXceQAE",
      "createdByName": "Projeto werise",
      "createdDate": "1970-01-01T00:00:00.000Z",
      "fileName": "objects/MLModel.object",
      "fullName": "MLModel",
      "id": "",
      "lastModifiedById": "0050P000008bXceQAE",
      "lastModifiedByName": "Projeto werise",
      "lastModifiedDate": "1970-01-01T00:00:00.000Z",
      "namespacePrefix": "",
      "type": "CustomObject"
    },
    {
      "createdById": "0050P000008bXceQAE",
      "createdByName": "Projeto werise",
      "createdDate": "1970-01-01T00:00:00.000Z",
      "fileName": "objects/CollaborationGroupMember.object",
      "fullName": "CollaborationGroupMember",
      "id": "",
      "lastModifiedById": "0050P000008bXceQAE",
      "lastModifiedByName": "Projeto werise",
      "lastModifiedDate": "1970-01-01T00:00:00.000Z",
      "namespacePrefix": "",
      "type": "CustomObject"
    },
    {
      "createdById": "0050P000008bXceQAE",
      "createdByName": "Projeto werise",
      "createdDate": "1970-01-01T00:00:00.000Z",
      "fileName": "objects/Activity.object",
      "fullName": "Activity",
      "id": "",
      "lastModifiedById": "0050P000008bXceQAE",
      "lastModifiedByName": "Projeto werise",
      "lastModifiedDate": "1970-01-01T00:00:00.000Z",
      "namespacePrefix": "",
      "type": "CustomObject"
    },
    {
      "createdById": "0050P000008bXceQAE",
      "createdByName": "Projeto werise",
      "createdDate": "1970-01-01T00:00:00.000Z",
      "fileName": "objects/ProfileSkillEndorsement.object",
      "fullName": "ProfileSkillEndorsement",
      "id": "",
      "lastModifiedById": "0050P000008bXceQAE",
      "lastModifiedByName": "Projeto werise",
      "lastModifiedDate": "1970-01-01T00:00:00.000Z",
      "namespacePrefix": "",
      "type": "CustomObject"
    },
    {
      "createdById": "0050P000007MexNQAS",
      "createdByName": "Fellipe Borges",
      "createdDate": "2017-11-29T11:19:06.000Z",
      "fileName": "objects/Zendesk__ZendeskLog__c.object",
      "fullName": "Zendesk__ZendeskLog__c",
      "id": "01I0P000000pnv8UAA",
      "lastModifiedById": "0050P000007MexNQAS",
      "lastModifiedByName": "Fellipe Borges",
      "lastModifiedDate": "2017-11-29T11:20:42.000Z",
      "manageableState": "installed",
      "namespacePrefix": "Zendesk",
      "type": "CustomObject"
    },
    {
      "createdById": "0050P000008bXceQAE",
      "createdByName": "Projeto werise",
      "createdDate": "1970-01-01T00:00:00.000Z",
      "fileName": "objects/AuthorizationFormDataUse.object",
      "fullName": "AuthorizationFormDataUse",
      "id": "",
      "lastModifiedById": "0050P000008bXceQAE",
      "lastModifiedByName": "Projeto werise",
      "lastModifiedDate": "1970-01-01T00:00:00.000Z",
      "namespacePrefix": "",
      "type": "CustomObject"
    },
    {
      "createdById": "0050P000008bXceQAE",
      "createdByName": "Projeto werise",
      "createdDate": "1970-01-01T00:00:00.000Z",
      "fileName": "objects/SocialPersona.object",
      "fullName": "SocialPersona",
      "id": "",
      "lastModifiedById": "0050P000008bXceQAE",
      "lastModifiedByName": "Projeto werise",
      "lastModifiedDate": "1970-01-01T00:00:00.000Z",
      "namespacePrefix": "",
      "type": "CustomObject"
    },
    {
      "createdById": "0050P000008bXceQAE",
      "createdByName": "Projeto werise",
      "createdDate": "1970-01-01T00:00:00.000Z",
      "fileName": "objects/Event.object",
      "fullName": "Event",
      "id": "",
      "lastModifiedById": "0050P000008bXceQAE",
      "lastModifiedByName": "Projeto werise",
      "lastModifiedDate": "1970-01-01T00:00:00.000Z",
      "namespacePrefix": "",
      "type": "CustomObject"
    },
    {
      "createdById": "0050P000007c5m0QAA",
      "createdByName": "Marcos Araujo de Souza",
      "createdDate": "2019-07-01T13:21:12.000Z",
      "fileName": "objects/cwbtool__Connection__c.object",
      "fullName": "cwbtool__Connection__c",
      "id": "01I0P000000uefjUAA",
      "lastModifiedById": "0050P000007c5m0QAA",
      "lastModifiedByName": "Marcos Araujo de Souza",
      "lastModifiedDate": "2019-07-01T13:22:48.000Z",
      "manageableState": "installed",
      "namespacePrefix": "cwbtool",
      "type": "CustomObject"
    },
    {
      "createdById": "0050P000008bXceQAE",
      "createdByName": "Projeto werise",
      "createdDate": "1970-01-01T00:00:00.000Z",
      "fileName": "objects/ForecastingAdjustment.object",
      "fullName": "ForecastingAdjustment",
      "id": "",
      "lastModifiedById": "0050P000008bXceQAE",
      "lastModifiedByName": "Projeto werise",
      "lastModifiedDate": "1970-01-01T00:00:00.000Z",
      "namespacePrefix": "",
      "type": "CustomObject"
    },
    {
      "createdById": "0050P000008bXceQAE",
      "createdByName": "Projeto werise",
      "createdDate": "1970-01-01T00:00:00.000Z",
      "fileName": "objects/ContactPointEmail.object",
      "fullName": "ContactPointEmail",
      "id": "",
      "lastModifiedById": "0050P000008bXceQAE",
      "lastModifiedByName": "Projeto werise",
      "lastModifiedDate": "1970-01-01T00:00:00.000Z",
      "namespacePrefix": "",
      "type": "CustomObject"
    },
    {
      "createdById": "0050P000008bXceQAE",
      "createdByName": "Projeto werise",
      "createdDate": "1970-01-01T00:00:00.000Z",
      "fileName": "objects/StreamActivityAccess.object",
      "fullName": "StreamActivityAccess",
      "id": "",
      "lastModifiedById": "0050P000008bXceQAE",
      "lastModifiedByName": "Projeto werise",
      "lastModifiedDate": "1970-01-01T00:00:00.000Z",
      "namespacePrefix": "",
      "type": "CustomObject"
    },
    {
      "createdById": "0050P000008bXceQAE",
      "createdByName": "Projeto werise",
      "createdDate": "1970-01-01T00:00:00.000Z",
      "fileName": "objects/DuplicateRecordSet.object",
      "fullName": "DuplicateRecordSet",
      "id": "",
      "lastModifiedById": "0050P000008bXceQAE",
      "lastModifiedByName": "Projeto werise",
      "lastModifiedDate": "1970-01-01T00:00:00.000Z",
      "namespacePrefix": "",
      "type": "CustomObject"
    },
    {
      "createdById": "0050P000008bXceQAE",
      "createdByName": "Projeto werise",
      "createdDate": "1970-01-01T00:00:00.000Z",
      "fileName": "objects/ManagedContentVersion.object",
      "fullName": "ManagedContentVersion",
      "id": "",
      "lastModifiedById": "0050P000008bXceQAE",
      "lastModifiedByName": "Projeto werise",
      "lastModifiedDate": "1970-01-01T00:00:00.000Z",
      "namespacePrefix": "",
      "type": "CustomObject"
    },
    {
      "createdById": "0050P000007c5m0QAA",
      "createdByName": "Marcos Araujo de Souza",
      "createdDate": "2020-03-28T13:12:26.000Z",
      "fileName": "objects/PaymentHistoryCreditCard__c.object",
      "fullName": "PaymentHistoryCreditCard__c",
      "id": "01I0P000000upZAUAY",
      "lastModifiedById": "0050P000007c5m0QAA",
      "lastModifiedByName": "Marcos Araujo de Souza",
      "lastModifiedDate": "2020-03-28T19:47:50.000Z",
      "manageableState": "unmanaged",
      "type": "CustomObject"
    },
    {
      "createdById": "0050P000008bXceQAE",
      "createdByName": "Projeto werise",
      "createdDate": "1970-01-01T00:00:00.000Z",
      "fileName": "objects/ActivityRecurrence2Exception.object",
      "fullName": "ActivityRecurrence2Exception",
      "id": "",
      "lastModifiedById": "0050P000008bXceQAE",
      "lastModifiedByName": "Projeto werise",
      "lastModifiedDate": "1970-01-01T00:00:00.000Z",
      "namespacePrefix": "",
      "type": "CustomObject"
    },
    {
      "createdById": "0050P000008bXceQAE",
      "createdByName": "Projeto werise",
      "createdDate": "1970-01-01T00:00:00.000Z",
      "fileName": "objects/OpportunityCompetitor.object",
      "fullName": "OpportunityCompetitor",
      "id": "",
      "lastModifiedById": "0050P000008bXceQAE",
      "lastModifiedByName": "Projeto werise",
      "lastModifiedDate": "1970-01-01T00:00:00.000Z",
      "namespacePrefix": "",
      "type": "CustomObject"
    },
    {
      "createdById": "0050P000008bXceQAE",
      "createdByName": "Projeto werise",
      "createdDate": "1970-01-01T00:00:00.000Z",
      "fileName": "objects/Territory2Model.object",
      "fullName": "Territory2Model",
      "id": "",
      "lastModifiedById": "0050P000008bXceQAE",
      "lastModifiedByName": "Projeto werise",
      "lastModifiedDate": "1970-01-01T00:00:00.000Z",
      "namespacePrefix": "",
      "type": "CustomObject"
    },
    {
      "createdById": "0050P000008bXceQAE",
      "createdByName": "Projeto werise",
      "createdDate": "1970-01-01T00:00:00.000Z",
      "fileName": "objects/AssistantProgress.object",
      "fullName": "AssistantProgress",
      "id": "",
      "lastModifiedById": "0050P000008bXceQAE",
      "lastModifiedByName": "Projeto werise",
      "lastModifiedDate": "1970-01-01T00:00:00.000Z",
      "namespacePrefix": "",
      "type": "CustomObject"
    },
    {
      "createdById": "0050P000008bXceQAE",
      "createdByName": "Projeto werise",
      "createdDate": "1970-01-01T00:00:00.000Z",
      "fileName": "objects/QuickText.object",
      "fullName": "QuickText",
      "id": "",
      "lastModifiedById": "0050P000008bXceQAE",
      "lastModifiedByName": "Projeto werise",
      "lastModifiedDate": "1970-01-01T00:00:00.000Z",
      "namespacePrefix": "",
      "type": "CustomObject"
    },
    {
      "createdById": "0050P000008bXceQAE",
      "createdByName": "Projeto werise",
      "createdDate": "1970-01-01T00:00:00.000Z",
      "fileName": "objects/ContactPointPhone.object",
      "fullName": "ContactPointPhone",
      "id": "",
      "lastModifiedById": "0050P000008bXceQAE",
      "lastModifiedByName": "Projeto werise",
      "lastModifiedDate": "1970-01-01T00:00:00.000Z",
      "namespacePrefix": "",
      "type": "CustomObject"
    },
    {
      "createdById": "0050P000008bXceQAE",
      "createdByName": "Projeto werise",
      "createdDate": "1970-01-01T00:00:00.000Z",
      "fileName": "objects/ForecastingTypeToCategory.object",
      "fullName": "ForecastingTypeToCategory",
      "id": "",
      "lastModifiedById": "0050P000008bXceQAE",
      "lastModifiedByName": "Projeto werise",
      "lastModifiedDate": "1970-01-01T00:00:00.000Z",
      "namespacePrefix": "",
      "type": "CustomObject"
    },
    {
      "createdById": "0050P000006xy0CQAQ",
      "createdByName": "Phanikanth Chatakommu",
      "createdDate": "2018-06-19T22:04:04.000Z",
      "fileName": "objects/Territory_Settings__c.object",
      "fullName": "Territory_Settings__c",
      "id": "01I0P0000012MkyUAE",
      "lastModifiedById": "0050P000006xy0CQAQ",
      "lastModifiedByName": "Phanikanth Chatakommu",
      "lastModifiedDate": "2018-06-19T22:04:04.000Z",
      "manageableState": "unmanaged",
      "type": "CustomObject"
    },
    {
      "createdById": "0050P000008bXceQAE",
      "createdByName": "Projeto werise",
      "createdDate": "1970-01-01T00:00:00.000Z",
      "fileName": "objects/Product2.object",
      "fullName": "Product2",
      "id": "",
      "lastModifiedById": "0050P000008bXceQAE",
      "lastModifiedByName": "Projeto werise",
      "lastModifiedDate": "1970-01-01T00:00:00.000Z",
      "namespacePrefix": "",
      "type": "CustomObject"
    },
    {
      "createdById": "0050P000008bXceQAE",
      "createdByName": "Projeto werise",
      "createdDate": "1970-01-01T00:00:00.000Z",
      "fileName": "objects/Campaign.object",
      "fullName": "Campaign",
      "id": "",
      "lastModifiedById": "0050P000008bXceQAE",
      "lastModifiedByName": "Projeto werise",
      "lastModifiedDate": "1970-01-01T00:00:00.000Z",
      "namespacePrefix": "",
      "type": "CustomObject"
    },
    {
      "createdById": "0050P000008bXceQAE",
      "createdByName": "Projeto werise",
      "createdDate": "1970-01-01T00:00:00.000Z",
      "fileName": "objects/Case.object",
      "fullName": "Case",
      "id": "",
      "lastModifiedById": "0050P000008bXceQAE",
      "lastModifiedByName": "Projeto werise",
      "lastModifiedDate": "1970-01-01T00:00:00.000Z",
      "namespacePrefix": "",
      "type": "CustomObject"
    },
    {
      "createdById": "0050P000008bXceQAE",
      "createdByName": "Projeto werise",
      "createdDate": "1970-01-01T00:00:00.000Z",
      "fileName": "objects/CommSubscription.object",
      "fullName": "CommSubscription",
      "id": "",
      "lastModifiedById": "0050P000008bXceQAE",
      "lastModifiedByName": "Projeto werise",
      "lastModifiedDate": "1970-01-01T00:00:00.000Z",
      "namespacePrefix": "",
      "type": "CustomObject"
    },
    {
      "createdById": "0050P000008bXceQAE",
      "createdByName": "Projeto werise",
      "createdDate": "1970-01-01T00:00:00.000Z",
      "fileName": "objects/NetworkMember.object",
      "fullName": "NetworkMember",
      "id": "",
      "lastModifiedById": "0050P000008bXceQAE",
      "lastModifiedByName": "Projeto werise",
      "lastModifiedDate": "1970-01-01T00:00:00.000Z",
      "namespacePrefix": "",
      "type": "CustomObject"
    },
    {
      "createdById": "0050P000008bXceQAE",
      "createdByName": "Projeto werise",
      "createdDate": "2020-06-30T18:25:36.000Z",
      "fileName": "objects/rh2__PS_Queue__c.object",
      "fullName": "rh2__PS_Queue__c",
      "id": "01I2C0000005VkQUAU",
      "lastModifiedById": "0052C000002I4DtQAK",
      "lastModifiedByName": "Rollup Helper",
      "lastModifiedDate": "2021-01-19T04:20:08.000Z",
      "manageableState": "installed",
      "namespacePrefix": "rh2",
      "type": "CustomObject"
    },
    {
      "createdById": "0050P000008bXceQAE",
      "createdByName": "Projeto werise",
      "createdDate": "1970-01-01T00:00:00.000Z",
      "fileName": "objects/AuthorizationFormText.object",
      "fullName": "AuthorizationFormText",
      "id": "",
      "lastModifiedById": "0050P000008bXceQAE",
      "lastModifiedByName": "Projeto werise",
      "lastModifiedDate": "1970-01-01T00:00:00.000Z",
      "namespacePrefix": "",
      "type": "CustomObject"
    },
    {
      "createdById": "0050P000008bXceQAE",
      "createdByName": "Projeto werise",
      "createdDate": "1970-01-01T00:00:00.000Z",
      "fileName": "objects/Scorecard.object",
      "fullName": "Scorecard",
      "id": "",
      "lastModifiedById": "0050P000008bXceQAE",
      "lastModifiedByName": "Projeto werise",
      "lastModifiedDate": "1970-01-01T00:00:00.000Z",
      "namespacePrefix": "",
      "type": "CustomObject"
    },
    {
      "createdById": "0050P000008bXceQAE",
      "createdByName": "Projeto werise",
      "createdDate": "1970-01-01T00:00:00.000Z",
      "fileName": "objects/PromptAction.object",
      "fullName": "PromptAction",
      "id": "",
      "lastModifiedById": "0050P000008bXceQAE",
      "lastModifiedByName": "Projeto werise",
      "lastModifiedDate": "1970-01-01T00:00:00.000Z",
      "namespacePrefix": "",
      "type": "CustomObject"
    }
  ]
}
